Latent class analysis - Attitudes towards climate change in Europe
…
pidmat <- expand.grid(age_levels, gndr_levels, eisced_levels)
pidmat <- cbind(1, pidmat[,1], pidmat[,1]^2, pidmat[,2], pidmat[,3])
colnames(pidmat) <- rownames(coef(fit))
exb <- exp(pidmat %*% fit$coeff)

class_probs <- cbind(1, exb) / (1 + rowSums(exb))
colnames(class_probs) <- paste0("X", 1:ncol(class_probs))

df_effects <- cbind(pidmat[, -c(1,3)], class_probs) %>% 
  as_tibble %>%
  pivot_longer(-(1:ncol(class_probs)), names_to = "Class") 

df_effects

# A tibble: 840 × 5
    agea  gndr eisced Class value
   <dbl> <dbl>  <dbl> <chr> <dbl>
 1  15       1      1 X1    0.363
 2  15       1      1 X2    0.255
 3  15       1      1 X3    0.382
 4  18.9     1      1 X1    0.368
 5  18.9     1      1 X2    0.252
 6  18.9     1      1 X3    0.380
 7  22.9     1      1 X1    0.372
 8  22.9     1      1 X2    0.251
 9  22.9     1      1 X3    0.378
10  26.8     1      1 X1    0.375
# … with 830 more rows
…
